%YAML 1.1
%TAG !u! tag:unity3d.com,2011:
--- !u!1 &1035086106973811
GameObject:
  m_ObjectHideFlags: 0
  m_CorrespondingSourceObject: {fileID: 0}
  m_PrefabInstance: {fileID: 0}
  m_PrefabAsset: {fileID: 0}
  serializedVersion: 6
  m_Component:
  - component: {fileID: 4267248702582950}
  m_Layer: 0
  m_Name: Bip001 L Foot
  m_TagString: Untagged
  m_Icon: {fileID: 0}
  m_NavMeshLayer: 0
  m_StaticEditorFlags: 0
  m_IsActive: 1
--- !u!4 &4267248702582950
Transform:
  m_ObjectHideFlags: 0
  m_CorrespondingSourceObject: {fileID: 0}
  m_PrefabInstance: {fileID: 0}
  m_PrefabAsset: {fileID: 0}
  m_GameObject: {fileID: 1035086106973811}
  m_LocalRotation: {x: -0.11153854, y: 0.06187382, z: -0.013639772, w: 0.99173826}
  m_LocalPosition: {x: -0.21824752, y: 0, z: 0}
  m_LocalScale: {x: 1, y: 1, z: 1}
  m_Children:
  - {fileID: 4041905434031184}
  m_Father: {fileID: 4078317394484731}
  m_RootOrder: 0
  m_LocalEulerAnglesHint: {x: -12.975588, y: -6.8737817, z: 2.358536}
--- !u!1 &1078893932925946
GameObject:
  m_ObjectHideFlags: 0
  m_CorrespondingSourceObject: {fileID: 0}
  m_PrefabInstance: {fileID: 0}
  m_PrefabAsset: {fileID: 0}
  serializedVersion: 6
  m_Component:
  - component: {fileID: 4078317394484731}
  m_Layer: 0
  m_Name: Bip001 L Calf
  m_TagString: Untagged
  m_Icon: {fileID: 0}
  m_NavMeshLayer: 0
  m_StaticEditorFlags: 0
  m_IsActive: 1
--- !u!4 &4078317394484731
Transform:
  m_ObjectHideFlags: 0
  m_CorrespondingSourceObject: {fileID: 0}
  m_PrefabInstance: {fileID: 0}
  m_PrefabAsset: {fileID: 0}
  m_GameObject: {fileID: 1078893932925946}
  m_LocalRotation: {x: 1.5307125e-10, y: -0.0000000074490085, z: 0.020544874, w: 0.99978894}
  m_LocalPosition: {x: -0.2620513, y: -4.6566128e-12, z: 0.000000019073486}
  m_LocalScale: {x: 0.99999994, y: 1.0000001, z: 1}
  m_Children:
  - {fileID: 4267248702582950}
  m_Father: {fileID: 4163245258960184}
  m_RootOrder: 0
  m_LocalEulerAnglesHint: {x: 5.444362e-16, y: 0.0000008537737, z: -2.3544347}
--- !u!1 &1216605678013335
GameObject:
  m_ObjectHideFlags: 0
  m_CorrespondingSourceObject: {fileID: 0}
  m_PrefabInstance: {fileID: 0}
  m_PrefabAsset: {fileID: 0}
  serializedVersion: 6
  m_Component:
  - component: {fileID: 4042243762324225}
  m_Layer: 0
  m_Name: Bip001 R UpperArm
  m_TagString: Untagged
  m_Icon: {fileID: 0}
  m_NavMeshLayer: 0
  m_StaticEditorFlags: 0
  m_IsActive: 1
--- !u!4 &4042243762324225
Transform:
  m_ObjectHideFlags: 0
  m_CorrespondingSourceObject: {fileID: 0}
  m_PrefabInstance: {fileID: 0}
  m_PrefabAsset: {fileID: 0}
  m_GameObject: {fileID: 1216605678013335}
  m_LocalRotation: {x: -0.008518786, y: 0.13361388, z: 0.0003957114, w: 0.9909968}
  m_LocalPosition: {x: -0.054394014, y: -0.0000000023841857, z: -0.000000076293944}
  m_LocalScale: {x: 1.0000001, y: 1, z: 1.0000001}
  m_Children:
  - {fileID: 4747435560765495}
  m_Father: {fileID: 4933563927501102}
  m_RootOrder: 0
  m_LocalEulerAnglesHint: {x: -0.9969786, y: -15.356769, z: 0.088659994}
--- !u!1 &1227322125811644
GameObject:
  m_ObjectHideFlags: 0
  m_CorrespondingSourceObject: {fileID: 0}
  m_PrefabInstance: {fileID: 0}
  m_PrefabAsset: {fileID: 0}
  serializedVersion: 6
  m_Component:
  - component: {fileID: 4215747600740791}
  m_Layer: 0
  m_Name: Bip001 L Finger0
  m_TagString: Untagged
  m_Icon: {fileID: 0}
  m_NavMeshLayer: 0
  m_StaticEditorFlags: 0
  m_IsActive: 1
--- !u!4 &4215747600740791
Transform:
  m_ObjectHideFlags: 0
  m_CorrespondingSourceObject: {fileID: 0}
  m_PrefabInstance: {fileID: 0}
  m_PrefabAsset: {fileID: 0}
  m_GameObject: {fileID: 1227322125811644}
  m_LocalRotation: {x: 0.43585613, y: -0.24705507, z: -0.12575698, w: 0.8562584}
  m_LocalPosition: {x: -0.064760014, y: 0.011579971, z: -0.06005092}
  m_LocalScale: {x: 1.0000001, y: 1.0000001, z: 1.0000001}
  m_Children: []
  m_Father: {fileID: 4966594027515836}
  m_RootOrder: 0
  m_LocalEulerAnglesHint: {x: 58.371017, y: 18.267994, z: 26.97374}
--- !u!1 &1256670526210466
GameObject:
  m_ObjectHideFlags: 0
  m_CorrespondingSourceObject: {fileID: 0}
  m_PrefabInstance: {fileID: 0}
  m_PrefabAsset: {fileID: 0}
  serializedVersion: 6
  m_Component:
  - component: {fileID: 4630764785463626}
  m_Layer: 0
  m_Name: Bip001 L Finger1
  m_TagString: Untagged
  m_Icon: {fileID: 0}
  m_NavMeshLayer: 0
  m_StaticEditorFlags: 0
  m_IsActive: 1
--- !u!4 &4630764785463626
Transform:
  m_ObjectHideFlags: 0
  m_CorrespondingSourceObject: {fileID: 0}
  m_PrefabInstance: {fileID: 0}
  m_PrefabAsset: {fileID: 0}
  m_GameObject: {fileID: 1256670526210466}
  m_LocalRotation: {x: -0.00039815903, y: 0, z: -0, w: 0.99999994}
  m_LocalPosition: {x: -0.099440955, y: 0, z: 0.0000000047683715}
  m_LocalScale: {x: 1, y: 1.0000001, z: 0.99999994}
  m_Children: []
  m_Father: {fileID: 4966594027515836}
  m_RootOrder: 1
  m_LocalEulerAnglesHint: {x: -0.045625664, y: -0, z: 0}
--- !u!1 &1277943974129399
GameObject:
  m_ObjectHideFlags: 0
  m_CorrespondingSourceObject: {fileID: 0}
  m_PrefabInstance: {fileID: 0}
  m_PrefabAsset: {fileID: 0}
  serializedVersion: 6
  m_Component:
  - component: {fileID: 4140604172168082}
  m_Layer: 0
  m_Name: Bip001 Neck
  m_TagString: Untagged
  m_Icon: {fileID: 0}
  m_NavMeshLayer: 0
  m_StaticEditorFlags: 0
  m_IsActive: 1
--- !u!4 &4140604172168082
Transform:
  m_ObjectHideFlags: 0
  m_CorrespondingSourceObject: {fileID: 0}
  m_PrefabInstance: {fileID: 0}
  m_PrefabAsset: {fileID: 0}
  m_GameObject: {fileID: 1277943974129399}
  m_LocalRotation: {x: -2.57461e-13, y: -3.6970427e-14, z: -9.518442e-27, w: 1}
  m_LocalPosition: {x: -0.2746856, y: -0.035176706, z: -0.000000047903725}
  m_LocalScale: {x: 1, y: 1, z: 1}
  m_Children:
  - {fileID: 4285014838686469}
  - {fileID: 4427362146761572}
  - {fileID: 4933563927501102}
  m_Father: {fileID: 4977949622861792}
  m_RootOrder: 0
  m_LocalEulerAnglesHint: {x: -2.9502855e-11, y: 4.2364987e-12, z: -8.89678e-32}
--- !u!1 &1280451950366068
GameObject:
  m_ObjectHideFlags: 0
  m_CorrespondingSourceObject: {fileID: 0}
  m_PrefabInstance: {fileID: 0}
  m_PrefabAsset: {fileID: 0}
  serializedVersion: 6
  m_Component:
  - component: {fileID: 4213075755097301}
  m_Layer: 0
  m_Name: Bip001 R Finger0
  m_TagString: Untagged
  m_Icon: {fileID: 0}
  m_NavMeshLayer: 0
  m_StaticEditorFlags: 0
  m_IsActive: 1
--- !u!4 &4213075755097301
Transform:
  m_ObjectHideFlags: 0
  m_CorrespondingSourceObject: {fileID: 0}
  m_PrefabInstance: {fileID: 0}
  m_PrefabAsset: {fileID: 0}
  m_GameObject: {fileID: 1280451950366068}
  m_LocalRotation: {x: -0.43585613, y: 0.24705507, z: -0.12575698, w: 0.8562584}
  m_LocalPosition: {x: -0.064760014, y: 0.011579894, z: 0.060050916}
  m_LocalScale: {x: 1, y: 0.99999994, z: 0.99999994}
  m_Children: []
  m_Father: {fileID: 4583877453057285}
  m_RootOrder: 0
  m_LocalEulerAnglesHint: {x: -58.371017, y: -18.267994, z: 26.97374}
--- !u!1 &1316372957546282
GameObject:
  m_ObjectHideFlags: 0
  m_CorrespondingSourceObject: {fileID: 0}
  m_PrefabInstance: {fileID: 0}
  m_PrefabAsset: {fileID: 0}
  serializedVersion: 6
  m_Component:
  - component: {fileID: 4356737143231218}
  - component: {fileID: 95019448655983436}
  m_Layer: 0
  m_Name: newbody_daiji+tiao
  m_TagString: Untagged
  m_Icon: {fileID: 0}
  m_NavMeshLayer: 0
  m_StaticEditorFlags: 0
  m_IsActive: 1
--- !u!4 &4356737143231218
Transform:
  m_ObjectHideFlags: 0
  m_CorrespondingSourceObject: {fileID: 0}
  m_PrefabInstance: {fileID: 0}
  m_PrefabAsset: {fileID: 0}
  m_GameObject: {fileID: 1316372957546282}
  m_LocalRotation: {x: 0, y: 0, z: 0, w: 1}
  m_LocalPosition: {x: 0, y: 0, z: 0}
  m_LocalScale: {x: 1, y: 1, z: 1}
  m_Children:
  - {fileID: 4173602054879614}
  - {fileID: 4777422798690571}
  - {fileID: 4188701244224501}
  m_Father: {fileID: 0}
  m_RootOrder: 0
  m_LocalEulerAnglesHint: {x: 0, y: -0, z: -0}
--- !u!95 &95019448655983436
Animator:
  serializedVersion: 3
  m_ObjectHideFlags: 0
  m_CorrespondingSourceObject: {fileID: 0}
  m_PrefabInstance: {fileID: 0}
  m_PrefabAsset: {fileID: 0}
  m_GameObject: {fileID: 1316372957546282}
  m_Enabled: 1
  m_Avatar: {fileID: 9000000, guid: c6b670c1686aba448aedb7fb3e0ff0de, type: 2}
  m_Controller: {fileID: 9100000, guid: 845f8d95129bdc54388feda8580c5eff, type: 2}
  m_CullingMode: 1
  m_UpdateMode: 0
  m_ApplyRootMotion: 0
  m_LinearVelocityBlending: 0
  m_WarningMessage: 
  m_HasTransformHierarchy: 1
  m_AllowConstantClipSamplingOptimization: 1
  m_KeepAnimatorControllerStateOnDisable: 0
--- !u!1 &1367579356761910
GameObject:
  m_ObjectHideFlags: 0
  m_CorrespondingSourceObject: {fileID: 0}
  m_PrefabInstance: {fileID: 0}
  m_PrefabAsset: {fileID: 0}
  serializedVersion: 6
  m_Component:
  - component: {fileID: 4701856941044465}
  m_Layer: 0
  m_Name: Bip001 R Finger1
  m_TagString: Untagged
  m_Icon: {fileID: 0}
  m_NavMeshLayer: 0
  m_StaticEditorFlags: 0
  m_IsActive: 1
--- !u!4 &4701856941044465
Transform:
  m_ObjectHideFlags: 0
  m_CorrespondingSourceObject: {fileID: 0}
  m_PrefabInstance: {fileID: 0}
  m_PrefabAsset: {fileID: 0}
  m_GameObject: {fileID: 1367579356761910}
  m_LocalRotation: {x: 0.00039815903, y: -4.7159426e-10, z: -0.000000014900975, w: 0.99999994}
  m_LocalPosition: {x: -0.09944099, y: 0, z: 0}
  m_LocalScale: {x: 1, y: 1.0000001, z: 0.9999999}
  m_Children: []
  m_Father: {fileID: 4583877453057285}
  m_RootOrder: 1
  m_LocalEulerAnglesHint: {x: 0.045625664, y: 0.000000053360854, z: 0.0000017075473}
--- !u!1 &1371704546089019
GameObject:
  m_ObjectHideFlags: 0
  m_CorrespondingSourceObject: {fileID: 0}
  m_PrefabInstance: {fileID: 0}
  m_PrefabAsset: {fileID: 0}
  serializedVersion: 6
  m_Component:
  - component: {fileID: 4747435560765495}
  m_Layer: 0
  m_Name: Bip001 R Forearm
  m_TagString: Untagged
  m_Icon: {fileID: 0}
  m_NavMeshLayer: 0
  m_StaticEditorFlags: 0
  m_IsActive: 1
--- !u!4 &4747435560765495
Transform:
  m_ObjectHideFlags: 0
  m_CorrespondingSourceObject: {fileID: 0}
  m_PrefabInstance: {fileID: 0}
  m_PrefabAsset: {fileID: 0}
  m_GameObject: {fileID: 1371704546089019}
  m_LocalRotation: {x: 9.537506e-10, y: -0.000000029801615, z: 0.0007525676, w: 0.9999997}
  m_LocalPosition: {x: -0.26943213, y: 0, z: -0.000000076293944}
  m_LocalScale: {x: 0.99999994, y: 0.99999994, z: 0.9999999}
  m_Children:
  - {fileID: 4583877453057285}
  m_Father: {fileID: 4042243762324225}
  m_RootOrder: 0
  m_LocalEulerAnglesHint: {x: 0.000000106721714, y: 0.0000034150949, z: -0.0862379}
--- !u!1 &1405526042645973
GameObject:
  m_ObjectHideFlags: 0
  m_CorrespondingSourceObject: {fileID: 0}
  m_PrefabInstance: {fileID: 0}
  m_PrefabAsset: {fileID: 0}
  serializedVersion: 6
  m_Component:
  - component: {fileID: 4933563927501102}
  m_Layer: 0
  m_Name: Bip001 R Clavicle
  m_TagString: Untagged
  m_Icon: {fileID: 0}
  m_NavMeshLayer: 0
  m_StaticEditorFlags: 0
  m_IsActive: 1
--- !u!4 &4933563927501102
Transform:
  m_ObjectHideFlags: 0
  m_CorrespondingSourceObject: {fileID: 0}
  m_PrefabInstance: {fileID: 0}
  m_PrefabAsset: {fileID: 0}
  m_GameObject: {fileID: 1405526042645973}
  m_LocalRotation: {x: 0.60118663, y: 0.00023825878, z: 0.79910856, w: -0.00031899477}
  m_LocalPosition: {x: 0.0749778, y: -0.0034418344, z: -0.13157}
  m_LocalScale: {x: 1, y: 1, z: 1}
  m_Children:
  - {fileID: 4042243762324225}
  m_Father: {fileID: 4140604172168082}
  m_RootOrder: 2
  m_LocalEulerAnglesHint: {x: -0.000570896, y: 73.90987, z: 179.95383}
--- !u!1 &1414811794705458
GameObject:
  m_ObjectHideFlags: 0
  m_CorrespondingSourceObject: {fileID: 0}
  m_PrefabInstance: {fileID: 0}
  m_PrefabAsset: {fileID: 0}
  serializedVersion: 6
  m_Component:
  - component: {fileID: 4796110226752613}
  m_Layer: 0
  m_Name: Bip001 R Calf
  m_TagString: Untagged
  m_Icon: {fileID: 0}
  m_NavMeshLayer: 0
  m_StaticEditorFlags: 0
  m_IsActive: 1
--- !u!4 &4796110226752613
Transform:
  m_ObjectHideFlags: 0
  m_CorrespondingSourceObject: {fileID: 0}
  m_PrefabInstance: {fileID: 0}
  m_PrefabAsset: {fileID: 0}
  m_GameObject: {fileID: 1414811794705458}
  m_LocalRotation: {x: -1.5307126e-10, y: 0.000000007449009, z: 0.020544874, w: 0.99978894}
  m_LocalPosition: {x: -0.2620513, y: -4.6566128e-12, z: 0}
  m_LocalScale: {x: 0.9999999, y: 1.0000001, z: 0.99999994}
  m_Children:
  - {fileID: 4932834348025457}
  m_Father: {fileID: 4088256548979103}
  m_RootOrder: 0
  m_LocalEulerAnglesHint: {x: -1.0888724e-15, y: -0.00000085377377, z: -2.3544347}
--- !u!1 &1430513216688428
GameObject:
  m_ObjectHideFlags: 0
  m_CorrespondingSourceObject: {fileID: 0}
  m_PrefabInstance: {fileID: 0}
  m_PrefabAsset: {fileID: 0}
  serializedVersion: 6
  m_Component:
  - component: {fileID: 4977949622861792}
  m_Layer: 0
  m_Name: Bip001 Spine1
  m_TagString: Untagged
  m_Icon: {fileID: 0}
  m_NavMeshLayer: 0
  m_StaticEditorFlags: 0
  m_IsActive: 1
--- !u!4 &4977949622861792
Transform:
  m_ObjectHideFlags: 0
  m_CorrespondingSourceObject: {fileID: 0}
  m_PrefabInstance: {fileID: 0}
  m_PrefabAsset: {fileID: 0}
  m_GameObject: {fileID: 1430513216688428}
  m_LocalRotation: {x: 1.4043638e-13, y: 8.326673e-15, z: -1.16936775e-27, w: 1}
  m_LocalPosition: {x: -0.23042183, y: -0.00018896848, z: -5.2413596e-10}
  m_LocalScale: {x: 1, y: 1, z: 1}
  m_Children:
  - {fileID: 4140604172168082}
  m_Father: {fileID: 4863403341925568}
  m_RootOrder: 2
  m_LocalEulerAnglesHint: {x: 1.6092823e-11, y: -9.541664e-13, z: -4.1380373e-33}
--- !u!1 &1515772359885627
GameObject:
  m_ObjectHideFlags: 0
  m_CorrespondingSourceObject: {fileID: 0}
  m_PrefabInstance: {fileID: 0}
  m_PrefabAsset: {fileID: 0}
  serializedVersion: 6
  m_Component:
  - component: {fileID: 4966594027515836}
  m_Layer: 0
  m_Name: Bip001 L Hand
  m_TagString: Untagged
  m_Icon: {fileID: 0}
  m_NavMeshLayer: 0
  m_StaticEditorFlags: 0
  m_IsActive: 1
--- !u!4 &4966594027515836
Transform:
  m_ObjectHideFlags: 0
  m_CorrespondingSourceObject: {fileID: 0}
  m_PrefabInstance: {fileID: 0}
  m_PrefabAsset: {fileID: 0}
  m_GameObject: {fileID: 1515772359885627}
  m_LocalRotation: {x: -0.7053586, y: -0.04554584, z: -0.045509584, w: 0.7059205}
  m_LocalPosition: {x: -0.28333122, y: -0.0000000047683715, z: -0.000000076293944}
  m_LocalScale: {x: 1.0000001, y: 1, z: 1}
  m_Children:
  - {fileID: 4215747600740791}
  - {fileID: 4630764785463626}
  m_Father: {fileID: 4565579587420485}
  m_RootOrder: 0
  m_LocalEulerAnglesHint: {x: -89.95438, y: 7.3831887, z: -0.00000010697768}
--- !u!1 &1623675922464391
GameObject:
  m_ObjectHideFlags: 0
  m_CorrespondingSourceObject: {fileID: 0}
  m_PrefabInstance: {fileID: 0}
  m_PrefabAsset: {fileID: 0}
  serializedVersion: 6
  m_Component:
  - component: {fileID: 4188701244224501}
  - component: {fileID: 137742621071892851}
  m_Layer: 0
  m_Name: newbody_001
  m_TagString: Untagged
  m_Icon: {fileID: 0}
  m_NavMeshLayer: 0
  m_StaticEditorFlags: 0
  m_IsActive: 1
--- !u!4 &4188701244224501
Transform:
  m_ObjectHideFlags: 0
  m_CorrespondingSourceObject: {fileID: 0}
  m_PrefabInstance: {fileID: 0}
  m_PrefabAsset: {fileID: 0}
  m_GameObject: {fileID: 1623675922464391}
  m_LocalRotation: {x: -0.7071068, y: 0, z: -0, w: 0.7071068}
  m_LocalPosition: {x: -0.0000000013309827, y: 0.0000000013309827, z: -0.030449333}
  m_LocalScale: {x: 0.393701, y: 0.393701, z: 0.393701}
  m_Children: []
  m_Father: {fileID: 4356737143231218}
  m_RootOrder: 2
  m_LocalEulerAnglesHint: {x: -90, y: -0, z: 0}
--- !u!137 &137742621071892851
SkinnedMeshRenderer:
  m_ObjectHideFlags: 0
  m_CorrespondingSourceObject: {fileID: 0}
  m_PrefabInstance: {fileID: 0}
  m_PrefabAsset: {fileID: 0}
  m_GameObject: {fileID: 1623675922464391}
  m_Enabled: 1
  m_CastShadows: 1
  m_ReceiveShadows: 1
  m_DynamicOccludee: 1
  m_MotionVectors: 1
  m_LightProbeUsage: 1
  m_ReflectionProbeUsage: 1
  m_RayTracingMode: 3
  m_RayTraceProcedural: 0
  m_RenderingLayerMask: 1
  m_RendererPriority: 0
  m_Materials:
  - {fileID: 2100000, guid: f55bf57f0ee385445bd9f6909050ec51, type: 2}
  m_StaticBatchInfo:
    firstSubMesh: 0
    subMeshCount: 0
  m_StaticBatchRoot: {fileID: 0}
  m_ProbeAnchor: {fileID: 0}
  m_LightProbeVolumeOverride: {fileID: 0}
  m_ScaleInLightmap: 1
  m_ReceiveGI: 1
  m_PreserveUVs: 0
  m_IgnoreNormalsForChartDetection: 0
  m_ImportantGI: 0
  m_StitchLightmapSeams: 0
  m_SelectedEditorRenderState: 3
  m_MinimumChartSize: 4
  m_AutoUVMaxDistance: 0.5
  m_AutoUVMaxAngle: 89
  m_LightmapParameters: {fileID: 0}
  m_SortingLayerID: 0
  m_SortingLayer: 0
  m_SortingOrder: 0
  serializedVersion: 2
  m_Quality: 0
  m_UpdateWhenOffscreen: 0
  m_SkinnedMotionVectors: 1
  m_Mesh: {fileID: 4300000, guid: b057b340d8db96d42bfaf28a035a6bc5, type: 2}
  m_Bones:
  - {fileID: 4427362146761572}
  - {fileID: 4934827733121482}
  - {fileID: 4863403341925568}
  - {fileID: 4977949622861792}
  - {fileID: 4140604172168082}
  - {fileID: 4933563927501102}
  - {fileID: 4244348131299580}
  - {fileID: 4163245258960184}
  - {fileID: 4565579587420485}
  - {fileID: 4173602054879614}
  - {fileID: 4042243762324225}
  - {fileID: 4088256548979103}
  - {fileID: 4747435560765495}
  - {fileID: 4966594027515836}
  - {fileID: 4215747600740791}
  - {fileID: 4630764785463626}
  - {fileID: 4583877453057285}
  - {fileID: 4213075755097301}
  - {fileID: 4701856941044465}
  - {fileID: 4078317394484731}
  - {fileID: 4267248702582950}
  - {fileID: 4796110226752613}
  - {fileID: 4932834348025457}
  m_BlendShapeWeights: []
  m_RootBone: {fileID: 4173602054879614}
  m_AABB:
    m_Center: {x: -0.0013676733, y: 0.00000047683716, z: 0.030752838}
    m_Extent: {x: 0.16707414, y: 0.7953119, z: 0.603719}
  m_DirtyAABB: 0
--- !u!1 &1628907047626169
GameObject:
  m_ObjectHideFlags: 0
  m_CorrespondingSourceObject: {fileID: 0}
  m_PrefabInstance: {fileID: 0}
  m_PrefabAsset: {fileID: 0}
  serializedVersion: 6
  m_Component:
  - component: {fileID: 4173602054879614}
  m_Layer: 0
  m_Name: Bip001
  m_TagString: Untagged
  m_Icon: {fileID: 0}
  m_NavMeshLayer: 0
  m_StaticEditorFlags: 0
  m_IsActive: 1
--- !u!4 &4173602054879614
Transform:
  m_ObjectHideFlags: 0
  m_CorrespondingSourceObject: {fileID: 0}
  m_PrefabInstance: {fileID: 0}
  m_PrefabAsset: {fileID: 0}
  m_GameObject: {fileID: 1628907047626169}
  m_LocalRotation: {x: -0.50000036, y: 0.49999967, z: 0.49999967, w: 0.50000036}
  m_LocalPosition: {x: -0, y: 0.5678506, z: 0.0000000011763989}
  m_LocalScale: {x: 1, y: 1, z: 1}
  m_Children:
  - {fileID: 4244348131299580}
  m_Father: {fileID: 4356737143231218}
  m_RootOrder: 0
  m_LocalEulerAnglesHint: {x: -90, y: -89.99992, z: 0}
--- !u!1 &1650445449328774
GameObject:
  m_ObjectHideFlags: 0
  m_CorrespondingSourceObject: {fileID: 0}
  m_PrefabInstance: {fileID: 0}
  m_PrefabAsset: {fileID: 0}
  serializedVersion: 6
  m_Component:
  - component: {fileID: 4448757063896113}
  m_Layer: 0
  m_Name: Bip001 R Toe0
  m_TagString: Untagged
  m_Icon: {fileID: 0}
  m_NavMeshLayer: 0
  m_StaticEditorFlags: 0
  m_IsActive: 1
--- !u!4 &4448757063896113
Transform:
  m_ObjectHideFlags: 0
  m_CorrespondingSourceObject: {fileID: 0}
  m_PrefabInstance: {fileID: 0}
  m_PrefabAsset: {fileID: 0}
  m_GameObject: {fileID: 1650445449328774}
  m_LocalRotation: {x: -0.000000015454313, y: 0.000000015454313, z: -0.7071068, w: 0.7071068}
  m_LocalPosition: {x: -0.092553005, y: 0.111909024, z: 0.000000019073486}
  m_LocalScale: {x: 1, y: 1, z: 1}
  m_Children: []
  m_Father: {fileID: 4932834348025457}
  m_RootOrder: 0
  m_LocalEulerAnglesHint: {x: -0.0000025044785, y: 1.8957583e-22, z: 90}
--- !u!1 &1655076569432725
GameObject:
  m_ObjectHideFlags: 0
  m_CorrespondingSourceObject: {fileID: 0}
  m_PrefabInstance: {fileID: 0}
  m_PrefabAsset: {fileID: 0}
  serializedVersion: 6
  m_Component:
  - component: {fileID: 4427362146761572}
  m_Layer: 0
  m_Name: Bip001 L Clavicle
  m_TagString: Untagged
  m_Icon: {fileID: 0}
  m_NavMeshLayer: 0
  m_StaticEditorFlags: 0
  m_IsActive: 1
--- !u!4 &4427362146761572
Transform:
  m_ObjectHideFlags: 0
  m_CorrespondingSourceObject: {fileID: 0}
  m_PrefabInstance: {fileID: 0}
  m_PrefabAsset: {fileID: 0}
  m_GameObject: {fileID: 1655076569432725}
  m_LocalRotation: {x: -0.60118663, y: -0.00024049214, z: 0.79910856, w: -0.00031734986}
  m_LocalPosition: {x: 0.0749778, y: -0.003442564, z: 0.13156989}
  m_LocalScale: {x: 1, y: 1, z: 1}
  m_Children:
  - {fileID: 4934827733121482}
  m_Father: {fileID: 4140604172168082}
  m_RootOrder: 1
  m_LocalEulerAnglesHint: {x: -0.00057589, y: -73.90987, z: 179.95493}
--- !u!1 &1682540041799183
GameObject:
  m_ObjectHideFlags: 0
  m_CorrespondingSourceObject: {fileID: 0}
  m_PrefabInstance: {fileID: 0}
  m_PrefabAsset: {fileID: 0}
  serializedVersion: 6
  m_Component:
  - component: {fileID: 4777422798690571}
  - component: {fileID: 137628435311660504}
  m_Layer: 0
  m_Name: head_001
  m_TagString: Untagged
  m_Icon: {fileID: 0}
  m_NavMeshLayer: 0
  m_StaticEditorFlags: 0
  m_IsActive: 1
--- !u!4 &4777422798690571
Transform:
  m_ObjectHideFlags: 0
  m_CorrespondingSourceObject: {fileID: 0}
  m_PrefabInstance: {fileID: 0}
  m_PrefabAsset: {fileID: 0}
  m_GameObject: {fileID: 1682540041799183}
  m_LocalRotation: {x: -0.7071068, y: 0, z: -0, w: 0.7071068}
  m_LocalPosition: {x: -0, y: 0, z: -0.03045}
  m_LocalScale: {x: 0.393701, y: 0.393701, z: 0.393701}
  m_Children: []
  m_Father: {fileID: 4356737143231218}
  m_RootOrder: 1
  m_LocalEulerAnglesHint: {x: -90, y: -0, z: 0}
--- !u!137 &137628435311660504
SkinnedMeshRenderer:
  m_ObjectHideFlags: 0
  m_CorrespondingSourceObject: {fileID: 0}
  m_PrefabInstance: {fileID: 0}
  m_PrefabAsset: {fileID: 0}
  m_GameObject: {fileID: 1682540041799183}
  m_Enabled: 1
  m_CastShadows: 1
  m_ReceiveShadows: 1
  m_DynamicOccludee: 1
  m_MotionVectors: 1
  m_LightProbeUsage: 1
  m_ReflectionProbeUsage: 1
  m_RayTracingMode: 3
  m_RayTraceProcedural: 0
  m_RenderingLayerMask: 1
  m_RendererPriority: 0
  m_Materials:
  - {fileID: 2100000, guid: f55bf57f0ee385445bd9f6909050ec51, type: 2}
  m_StaticBatchInfo:
    firstSubMesh: 0
    subMeshCount: 0
  m_StaticBatchRoot: {fileID: 0}
  m_ProbeAnchor: {fileID: 0}
  m_LightProbeVolumeOverride: {fileID: 0}
  m_ScaleInLightmap: 1
  m_ReceiveGI: 1
  m_PreserveUVs: 0
  m_IgnoreNormalsForChartDetection: 0
  m_ImportantGI: 0
  m_StitchLightmapSeams: 0
  m_SelectedEditorRenderState: 3
  m_MinimumChartSize: 4
  m_AutoUVMaxDistance: 0.5
  m_AutoUVMaxAngle: 89
  m_LightmapParameters: {fileID: 0}
  m_SortingLayerID: 0
  m_SortingLayer: 0
  m_SortingOrder: 0
  serializedVersion: 2
  m_Quality: 0
  m_UpdateWhenOffscreen: 0
  m_SkinnedMotionVectors: 1
  m_Mesh: {fileID: 4300000, guid: f42d2dcd78cb0e14e984619e216d1955, type: 2}
  m_Bones:
  - {fileID: 4285014838686469}
  - {fileID: 4140604172168082}
  m_BlendShapeWeights: []
  m_RootBone: {fileID: 4140604172168082}
  m_AABB:
    m_Center: {x: -0.47829658, y: -0.0014519393, z: -0.0074082315}
    m_Extent: {x: 0.5281119, y: 0.3695633, z: 0.37402457}
  m_DirtyAABB: 0
--- !u!1 &1700873443926010
GameObject:
  m_ObjectHideFlags: 0
  m_CorrespondingSourceObject: {fileID: 0}
  m_PrefabInstance: {fileID: 0}
  m_PrefabAsset: {fileID: 0}
  serializedVersion: 6
  m_Component:
  - component: {fileID: 4041905434031184}
  m_Layer: 0
  m_Name: Bip001 L Toe0
  m_TagString: Untagged
  m_Icon: {fileID: 0}
  m_NavMeshLayer: 0
  m_StaticEditorFlags: 0
  m_IsActive: 1
--- !u!4 &4041905434031184
Transform:
  m_ObjectHideFlags: 0
  m_CorrespondingSourceObject: {fileID: 0}
  m_PrefabInstance: {fileID: 0}
  m_PrefabAsset: {fileID: 0}
  m_GameObject: {fileID: 1700873443926010}
  m_LocalRotation: {x: 0.000000015454313, y: -0.000000015454313, z: -0.7071068, w: 0.7071068}
  m_LocalPosition: {x: -0.092553005, y: 0.111909024, z: 0}
  m_LocalScale: {x: 1, y: 1, z: 1}
  m_Children: []
  m_Father: {fileID: 4267248702582950}
  m_RootOrder: 0
  m_LocalEulerAnglesHint: {x: 0.0000025044785, y: -1.8957583e-22, z: 90}
--- !u!1 &1776250320665853
GameObject:
  m_ObjectHideFlags: 0
  m_CorrespondingSourceObject: {fileID: 0}
  m_PrefabInstance: {fileID: 0}
  m_PrefabAsset: {fileID: 0}
  serializedVersion: 6
  m_Component:
  - component: {fileID: 4163245258960184}
  m_Layer: 0
  m_Name: Bip001 L Thigh
  m_TagString: Untagged
  m_Icon: {fileID: 0}
  m_NavMeshLayer: 0
  m_StaticEditorFlags: 0
  m_IsActive: 1
--- !u!4 &4163245258960184
Transform:
  m_ObjectHideFlags: 0
  m_CorrespondingSourceObject: {fileID: 0}
  m_PrefabInstance: {fileID: 0}
  m_PrefabAsset: {fileID: 0}
  m_GameObject: {fileID: 1776250320665853}
  m_LocalRotation: {x: -0.00036050583, y: 0.99820143, z: 0.00004641705, w: 0.059949066}
  m_LocalPosition: {x: 0.10032611, y: 0.00026297543, z: 0.14192669}
  m_LocalScale: {x: 1, y: 1, z: 1}
  m_Children:
  - {fileID: 4078317394484731}
  m_Father: {fileID: 4863403341925568}
  m_RootOrder: 0
  m_LocalEulerAnglesHint: {x: 179.99715, y: -6.87378, z: 179.95879}
--- !u!1 &1778608565612404
GameObject:
  m_ObjectHideFlags: 0
  m_CorrespondingSourceObject: {fileID: 0}
  m_PrefabInstance: {fileID: 0}
  m_PrefabAsset: {fileID: 0}
  serializedVersion: 6
  m_Component:
  - component: {fileID: 4934827733121482}
  m_Layer: 0
  m_Name: Bip001 L UpperArm
  m_TagString: Untagged
  m_Icon: {fileID: 0}
  m_NavMeshLayer: 0
  m_StaticEditorFlags: 0
  m_IsActive: 1
--- !u!4 &4934827733121482
Transform:
  m_ObjectHideFlags: 0
  m_CorrespondingSourceObject: {fileID: 0}
  m_PrefabInstance: {fileID: 0}
  m_PrefabAsset: {fileID: 0}
  m_GameObject: {fileID: 1778608565612404}
  m_LocalRotation: {x: 0.00851883, y: -0.13361396, z: 0.00039568412, w: 0.9909968}
  m_LocalPosition: {x: -0.054394033, y: 0, z: 0.000000076293944}
  m_LocalScale: {x: 1.0000001, y: 1, z: 1.0000001}
  m_Children:
  - {fileID: 4565579587420485}
  m_Father: {fileID: 4427362146761572}
  m_RootOrder: 0
  m_LocalEulerAnglesHint: {x: 0.99698424, y: 15.356777, z: 0.08866398}
--- !u!1 &1875447947413289
GameObject:
  m_ObjectHideFlags: 0
  m_CorrespondingSourceObject: {fileID: 0}
  m_PrefabInstance: {fileID: 0}
  m_PrefabAsset: {fileID: 0}
  serializedVersion: 6
  m_Component:
  - component: {fileID: 4932834348025457}
  m_Layer: 0
  m_Name: Bip001 R Foot
  m_TagString: Untagged
  m_Icon: {fileID: 0}
  m_NavMeshLayer: 0
  m_StaticEditorFlags: 0
  m_IsActive: 1
--- !u!4 &4932834348025457
Transform:
  m_ObjectHideFlags: 0
  m_CorrespondingSourceObject: {fileID: 0}
  m_PrefabInstance: {fileID: 0}
  m_PrefabAsset: {fileID: 0}
  m_GameObject: {fileID: 1875447947413289}
  m_LocalRotation: {x: 0.11153853, y: -0.061873905, z: -0.013639763, w: 0.99173826}
  m_LocalPosition: {x: -0.21824749, y: 0, z: -0.000000019073486}
  m_LocalScale: {x: 0.99999994, y: 0.9999999, z: 0.9999999}
  m_Children:
  - {fileID: 4448757063896113}
  m_Father: {fileID: 4796110226752613}
  m_RootOrder: 0
  m_LocalEulerAnglesHint: {x: 12.975587, y: 6.8737917, z: 2.358536}
--- !u!1 &1905124669895536
GameObject:
  m_ObjectHideFlags: 0
  m_CorrespondingSourceObject: {fileID: 0}
  m_PrefabInstance: {fileID: 0}
  m_PrefabAsset: {fileID: 0}
  serializedVersion: 6
  m_Component:
  - component: {fileID: 4088256548979103}
  m_Layer: 0
  m_Name: Bip001 R Thigh
  m_TagString: Untagged
  m_Icon: {fileID: 0}
  m_NavMeshLayer: 0
  m_StaticEditorFlags: 0
  m_IsActive: 1
--- !u!4 &4088256548979103
Transform:
  m_ObjectHideFlags: 0
  m_CorrespondingSourceObject: {fileID: 0}
  m_PrefabInstance: {fileID: 0}
  m_PrefabAsset: {fileID: 0}
  m_GameObject: {fileID: 1905124669895536}
  m_LocalRotation: {x: -0.000360604, y: 0.9982014, z: -0.000043641772, w: -0.059949193}
  m_LocalPosition: {x: 0.10032611, y: 0.00026376272, z: -0.14192669}
  m_LocalScale: {x: 1, y: 1, z: 1}
  m_Children:
  - {fileID: 4796110226752613}
  m_Father: {fileID: 4863403341925568}
  m_RootOrder: 1
  m_LocalEulerAnglesHint: {x: -179.99747, y: 6.873794, z: 179.95876}
--- !u!1 &1909661280065706
GameObject:
  m_ObjectHideFlags: 0
  m_CorrespondingSourceObject: {fileID: 0}
  m_PrefabInstance: {fileID: 0}
  m_PrefabAsset: {fileID: 0}
  serializedVersion: 6
  m_Component:
  - component: {fileID: 4244348131299580}
  m_Layer: 0
  m_Name: Bip001 Pelvis
  m_TagString: Untagged
  m_Icon: {fileID: 0}
  m_NavMeshLayer: 0
  m_StaticEditorFlags: 0
  m_IsActive: 1
--- !u!4 &4244348131299580
Transform:
  m_ObjectHideFlags: 0
  m_CorrespondingSourceObject: {fileID: 0}
  m_PrefabInstance: {fileID: 0}
  m_PrefabAsset: {fileID: 0}
  m_GameObject: {fileID: 1909661280065706}
  m_LocalRotation: {x: -0.5, y: 0.5, z: 0.49999934, w: 0.50000066}
  m_LocalPosition: {x: -0, y: 0, z: 0}
  m_LocalScale: {x: 1, y: 1, z: 1}
  m_Children:
  - {fileID: 4863403341925568}
  m_Father: {fileID: 4173602054879614}
  m_RootOrder: 0
  m_LocalEulerAnglesHint: {x: -89.99992, y: -89.99992, z: 0}
--- !u!1 &1911461233992422
GameObject:
  m_ObjectHideFlags: 0
  m_CorrespondingSourceObject: {fileID: 0}
  m_PrefabInstance: {fileID: 0}
  m_PrefabAsset: {fileID: 0}
  serializedVersion: 6
  m_Component:
  - component: {fileID: 4565579587420485}
  m_Layer: 0
  m_Name: Bip001 L Forearm
  m_TagString: Untagged
  m_Icon: {fileID: 0}
  m_NavMeshLayer: 0
  m_StaticEditorFlags: 0
  m_IsActive: 1
--- !u!4 &4565579587420485
Transform:
  m_ObjectHideFlags: 0
  m_CorrespondingSourceObject: {fileID: 0}
  m_PrefabInstance: {fileID: 0}
  m_PrefabAsset: {fileID: 0}
  m_GameObject: {fileID: 1911461233992422}
  m_LocalRotation: {x: -3.3642377e-11, y: 0.00000004470347, z: 0.00075256726, w: 0.9999997}
  m_LocalPosition: {x: -0.2694322, y: 0.0000000047683715, z: 0}
  m_LocalScale: {x: 1.0000001, y: 1, z: 1}
  m_Children:
  - {fileID: 4966594027515836}
  m_Father: {fileID: 4934827733121482}
  m_RootOrder: 0
  m_LocalEulerAnglesHint: {x: 2.2797702e-17, y: -0.0000051226416, z: -0.08623786}
--- !u!1 &1931456068994204
GameObject:
  m_ObjectHideFlags: 0
  m_CorrespondingSourceObject: {fileID: 0}
  m_PrefabInstance: {fileID: 0}
  m_PrefabAsset: {fileID: 0}
  serializedVersion: 6
  m_Component:
  - component: {fileID: 4583877453057285}
  m_Layer: 0
  m_Name: Bip001 R Hand
  m_TagString: Untagged
  m_Icon: {fileID: 0}
  m_NavMeshLayer: 0
  m_StaticEditorFlags: 0
  m_IsActive: 1
--- !u!4 &4583877453057285
Transform:
  m_ObjectHideFlags: 0
  m_CorrespondingSourceObject: {fileID: 0}
  m_PrefabInstance: {fileID: 0}
  m_PrefabAsset: {fileID: 0}
  m_GameObject: {fileID: 1931456068994204}
  m_LocalRotation: {x: 0.7053586, y: 0.04554583, z: -0.045509577, w: 0.7059205}
  m_LocalPosition: {x: -0.2833312, y: 0, z: 0.000000076293944}
  m_LocalScale: {x: 0.9999998, y: 0.9999999, z: 0.9999999}
  m_Children:
  - {fileID: 4213075755097301}
  - {fileID: 4701856941044465}
  m_Father: {fileID: 4747435560765495}
  m_RootOrder: 0
  m_LocalEulerAnglesHint: {x: 89.95438, y: -7.383188, z: -0.000000107461425}
--- !u!1 &1952738225198697
GameObject:
  m_ObjectHideFlags: 0
  m_CorrespondingSourceObject: {fileID: 0}
  m_PrefabInstance: {fileID: 0}
  m_PrefabAsset: {fileID: 0}
  serializedVersion: 6
  m_Component:
  - component: {fileID: 4285014838686469}
  m_Layer: 0
  m_Name: Bip001 Head
  m_TagString: Untagged
  m_Icon: {fileID: 0}
  m_NavMeshLayer: 0
  m_StaticEditorFlags: 0
  m_IsActive: 1
--- !u!4 &4285014838686469
Transform:
  m_ObjectHideFlags: 0
  m_CorrespondingSourceObject: {fileID: 0}
  m_PrefabInstance: {fileID: 0}
  m_PrefabAsset: {fileID: 0}
  m_GameObject: {fileID: 1952738225198697}
  m_LocalRotation: {x: -1.5812584e-14, y: -0.0000000011042732, z: 0.00039883057, w: 0.99999994}
  m_LocalPosition: {x: -0.05701973, y: -0.026035668, z: -0.000000035389128}
  m_LocalScale: {x: 1, y: 1, z: 1}
  m_Children: []
  m_Father: {fileID: 4140604172168082}
  m_RootOrder: 0
  m_LocalEulerAnglesHint: {x: -5.2280166e-11, y: 0.00000012654039, z: -0.045702618}
--- !u!1 &1983045145664288
GameObject:
  m_ObjectHideFlags: 0
  m_CorrespondingSourceObject: {fileID: 0}
  m_PrefabInstance: {fileID: 0}
  m_PrefabAsset: {fileID: 0}
  serializedVersion: 6
  m_Component:
  - component: {fileID: 4863403341925568}
  m_Layer: 0
  m_Name: Bip001 Spine
  m_TagString: Untagged
  m_Icon: {fileID: 0}
  m_NavMeshLayer: 0
  m_StaticEditorFlags: 0
  m_IsActive: 1
--- !u!4 &4863403341925568
Transform:
  m_ObjectHideFlags: 0
  m_CorrespondingSourceObject: {fileID: 0}
  m_PrefabInstance: {fileID: 0}
  m_PrefabAsset: {fileID: 0}
  m_GameObject: {fileID: 1983045145664288}
  m_LocalRotation: {x: -0.000002080476, y: 0.00000069367604, z: -0.00039815903, w: 0.99999994}
  m_LocalPosition: {x: -0.100326344, y: -0.00018345266, z: 0.00000013938697}
  m_LocalScale: {x: 1, y: 1, z: 1}
  m_Children:
  - {fileID: 4163245258960184}
  - {fileID: 4088256548979103}
  - {fileID: 4977949622861792}
  m_Father: {fileID: 4244348131299580}
  m_RootOrder: 0
  m_LocalEulerAnglesHint: {x: -0.00023843662, y: -0.00007939449, z: 0.045625664}
